         run       event       nTopo   nIdTracks      nMuons       nElec   nTrueElec   nFakeElec       nPhot   nTruePhot   nFakePhot
      327265   186524665         430         416           0           0           0           0           0           0           0
      327265   186525031         451         430           0           0           0           0           0           0           0
      327265   186542447         338         293           0           0           0           0           0           0           0
      327265   186543405         425         320           0           0           0           0           0           0           0
      327265   186548387         537         513           0           0           0           0           0           0           0
